multiplicador_tb.vcd
$date
	Mon Feb 17 13:06:40 2020
$end
$version
	Icarus Verilog
$end
$timescale
	10ps
$end
$scope module multiplicador_tb $end
$var wire 6 ! resultado [5:0] $end
$var wire 1 " Fin $end
$var reg 1 # clk $end
$var reg 3 $ multiplicador [2:0] $end
$var reg 3 % multiplicando [2:0] $end
$var reg 6 & resultado_esperado [5:0] $end
$var reg 1 ' start $end
$var integer 32 ( contador [31:0] $end
$scope module mult $end
$var wire 1 # clk $end
$var wire 3 ) multiplicador [2:0] $end
$var wire 3 * multiplicando [2:0] $end
$var wire 1 ' start $end
$var wire 6 + resultado [5:0] $end
$var wire 1 , resta $end
$var wire 1 - qmenos1 $end
$var wire 1 . inic $end
$var wire 1 / desplaza $end
$var wire 1 0 cargasuma $end
$var wire 1 " Fin $end
$scope module Camino_Datos $end
$var wire 1 # clk $end
$var wire 3 1 multiplicador [2:0] $end
$var wire 3 2 multiplicando [2:0] $end
$var wire 1 3 reset $end
$var wire 4 4 salidam [3:0] $end
$var wire 4 5 rsultadosuma [3:0] $end
$var wire 6 6 resultado [5:0] $end
$var wire 1 , resta $end
$var wire 4 7 rega [3:0] $end
$var wire 1 - qmenos1 $end
$var wire 1 . inic $end
$var wire 4 8 entradam [3:0] $end
$var wire 1 / desplaza $end
$var wire 1 0 cargasuma $end
$scope module reg_a $end
$var wire 1 9 bit_en_desp $end
$var wire 1 # clk $end
$var wire 1 : enable $end
$var wire 4 ; salida [3:0] $end
$var wire 1 . reset $end
$var wire 4 < entrada [3:0] $end
$var wire 1 / Desplaza $end
$var wire 1 0 Carga $end
$scope module ff0 $end
$var wire 1 : carga $end
$var wire 1 # clk $end
$var wire 1 = inp_c $end
$var wire 1 > inp_d $end
$var wire 1 0 selc_d $end
$var wire 1 ? salida $end
$var wire 1 . reset $end
$var wire 1 @ inp $end
$scope module ff0 $end
$var wire 1 : carga $end
$var wire 1 # clk $end
$var wire 1 . reset $end
$var wire 1 @ d $end
$var reg 1 ? q $end
$upscope $end
$scope module mux0 $end
$var wire 1 > a $end
$var wire 1 = b $end
$var wire 1 @ out $end
$var wire 1 A s_n $end
$var wire 1 B sa $end
$var wire 1 C sb $end
$var wire 1 0 s $end
$upscope $end
$upscope $end
$scope module ff1 $end
$var wire 1 : carga $end
$var wire 1 # clk $end
$var wire 1 D inp_c $end
$var wire 1 E inp_d $end
$var wire 1 0 selc_d $end
$var wire 1 F salida $end
$var wire 1 . reset $end
$var wire 1 G inp $end
$scope module ff0 $end
$var wire 1 : carga $end
$var wire 1 # clk $end
$var wire 1 . reset $end
$var wire 1 G d $end
$var reg 1 F q $end
$upscope $end
$scope module mux0 $end
$var wire 1 E a $end
$var wire 1 D b $end
$var wire 1 G out $end
$var wire 1 H s_n $end
$var wire 1 I sa $end
$var wire 1 J sb $end
$var wire 1 0 s $end
$upscope $end
$upscope $end
$scope module ff2 $end
$var wire 1 : carga $end
$var wire 1 # clk $end
$var wire 1 K inp_c $end
$var wire 1 L inp_d $end
$var wire 1 0 selc_d $end
$var wire 1 M salida $end
$var wire 1 . reset $end
$var wire 1 N inp $end
$scope module ff0 $end
$var wire 1 : carga $end
$var wire 1 # clk $end
$var wire 1 . reset $end
$var wire 1 N d $end
$var reg 1 M q $end
$upscope $end
$scope module mux0 $end
$var wire 1 L a $end
$var wire 1 K b $end
$var wire 1 N out $end
$var wire 1 O s_n $end
$var wire 1 P sa $end
$var wire 1 Q sb $end
$var wire 1 0 s $end
$upscope $end
$upscope $end
$scope module ff3 $end
$var wire 1 : carga $end
$var wire 1 # clk $end
$var wire 1 R inp_c $end
$var wire 1 9 inp_d $end
$var wire 1 0 selc_d $end
$var wire 1 S salida $end
$var wire 1 . reset $end
$var wire 1 T inp $end
$scope module ff0 $end
$var wire 1 : carga $end
$var wire 1 # clk $end
$var wire 1 . reset $end
$var wire 1 T d $end
$var reg 1 S q $end
$upscope $end
$scope module mux0 $end
$var wire 1 9 a $end
$var wire 1 R b $end
$var wire 1 T out $end
$var wire 1 U s_n $end
$var wire 1 V sa $end
$var wire 1 W sb $end
$var wire 1 0 s $end
$upscope $end
$upscope $end
$upscope $end
$scope module reg_m $end
$var wire 1 X Desplaza $end
$var wire 1 Y bit_en_desp $end
$var wire 1 # clk $end
$var wire 1 Z enable $end
$var wire 4 [ entrada [3:0] $end
$var wire 1 \ reset $end
$var wire 4 ] salida [3:0] $end
$var wire 1 . Carga $end
$scope module ff0 $end
$var wire 1 Z carga $end
$var wire 1 # clk $end
$var wire 1 ^ inp_c $end
$var wire 1 _ inp_d $end
$var wire 1 \ reset $end
$var wire 1 . selc_d $end
$var wire 1 ` salida $end
$var wire 1 a inp $end
$scope module ff0 $end
$var wire 1 Z carga $end
$var wire 1 # clk $end
$var wire 1 \ reset $end
$var wire 1 a d $end
$var reg 1 ` q $end
$upscope $end
$scope module mux0 $end
$var wire 1 _ a $end
$var wire 1 ^ b $end
$var wire 1 a out $end
$var wire 1 b s_n $end
$var wire 1 c sa $end
$var wire 1 d sb $end
$var wire 1 . s $end
$upscope $end
$upscope $end
$scope module ff1 $end
$var wire 1 Z carga $end
$var wire 1 # clk $end
$var wire 1 e inp_c $end
$var wire 1 f inp_d $end
$var wire 1 \ reset $end
$var wire 1 . selc_d $end
$var wire 1 g salida $end
$var wire 1 h inp $end
$scope module ff0 $end
$var wire 1 Z carga $end
$var wire 1 # clk $end
$var wire 1 \ reset $end
$var wire 1 h d $end
$var reg 1 g q $end
$upscope $end
$scope module mux0 $end
$var wire 1 f a $end
$var wire 1 e b $end
$var wire 1 h out $end
$var wire 1 i s_n $end
$var wire 1 j sa $end
$var wire 1 k sb $end
$var wire 1 . s $end
$upscope $end
$upscope $end
$scope module ff2 $end
$var wire 1 Z carga $end
$var wire 1 # clk $end
$var wire 1 l inp_c $end
$var wire 1 m inp_d $end
$var wire 1 \ reset $end
$var wire 1 . selc_d $end
$var wire 1 n salida $end
$var wire 1 o inp $end
$scope module ff0 $end
$var wire 1 Z carga $end
$var wire 1 # clk $end
$var wire 1 \ reset $end
$var wire 1 o d $end
$var reg 1 n q $end
$upscope $end
$scope module mux0 $end
$var wire 1 m a $end
$var wire 1 l b $end
$var wire 1 o out $end
$var wire 1 p s_n $end
$var wire 1 q sa $end
$var wire 1 r sb $end
$var wire 1 . s $end
$upscope $end
$upscope $end
$scope module ff3 $end
$var wire 1 Z carga $end
$var wire 1 # clk $end
$var wire 1 s inp_c $end
$var wire 1 Y inp_d $end
$var wire 1 \ reset $end
$var wire 1 . selc_d $end
$var wire 1 t salida $end
$var wire 1 u inp $end
$scope module ff0 $end
$var wire 1 Z carga $end
$var wire 1 # clk $end
$var wire 1 \ reset $end
$var wire 1 u d $end
$var reg 1 t q $end
$upscope $end
$scope module mux0 $end
$var wire 1 Y a $end
$var wire 1 s b $end
$var wire 1 u out $end
$var wire 1 v s_n $end
$var wire 1 w sa $end
$var wire 1 x sb $end
$var wire 1 . s $end
$upscope $end
$upscope $end
$upscope $end
$scope module reg_q $end
$var wire 1 y bit_en_desp $end
$var wire 1 # clk $end
$var wire 1 z enable $end
$var wire 3 { entrada [2:0] $end
$var wire 1 3 reset $end
$var wire 3 | salida [2:0] $end
$var wire 1 / Desplaza $end
$var wire 1 . Carga $end
$scope module ff0 $end
$var wire 1 z carga $end
$var wire 1 # clk $end
$var wire 1 } inp_c $end
$var wire 1 ~ inp_d $end
$var wire 1 3 reset $end
$var wire 1 . selc_d $end
$var wire 1 !" salida $end
$var wire 1 "" inp $end
$scope module ff0 $end
$var wire 1 z carga $end
$var wire 1 # clk $end
$var wire 1 3 reset $end
$var wire 1 "" d $end
$var reg 1 !" q $end
$upscope $end
$scope module mux0 $end
$var wire 1 ~ a $end
$var wire 1 } b $end
$var wire 1 "" out $end
$var wire 1 #" s_n $end
$var wire 1 $" sa $end
$var wire 1 %" sb $end
$var wire 1 . s $end
$upscope $end
$upscope $end
$scope module ff1 $end
$var wire 1 z carga $end
$var wire 1 # clk $end
$var wire 1 &" inp_c $end
$var wire 1 '" inp_d $end
$var wire 1 3 reset $end
$var wire 1 . selc_d $end
$var wire 1 (" salida $end
$var wire 1 )" inp $end
$scope module ff0 $end
$var wire 1 z carga $end
$var wire 1 # clk $end
$var wire 1 3 reset $end
$var wire 1 )" d $end
$var reg 1 (" q $end
$upscope $end
$scope module mux0 $end
$var wire 1 '" a $end
$var wire 1 &" b $end
$var wire 1 )" out $end
$var wire 1 *" s_n $end
$var wire 1 +" sa $end
$var wire 1 ," sb $end
$var wire 1 . s $end
$upscope $end
$upscope $end
$scope module ff2 $end
$var wire 1 z carga $end
$var wire 1 # clk $end
$var wire 1 -" inp_c $end
$var wire 1 y inp_d $end
$var wire 1 3 reset $end
$var wire 1 . selc_d $end
$var wire 1 ." salida $end
$var wire 1 /" inp $end
$scope module ff0 $end
$var wire 1 z carga $end
$var wire 1 # clk $end
$var wire 1 3 reset $end
$var wire 1 /" d $end
$var reg 1 ." q $end
$upscope $end
$scope module mux0 $end
$var wire 1 y a $end
$var wire 1 -" b $end
$var wire 1 /" out $end
$var wire 1 0" s_n $end
$var wire 1 1" sa $end
$var wire 1 2" sb $end
$var wire 1 . s $end
$upscope $end
$upscope $end
$upscope $end
$scope module registro_qmenos1 $end
$var wire 1 # clk $end
$var wire 1 3" d $end
$var wire 1 . reset $end
$var wire 1 / carga $end
$var reg 1 - q $end
$upscope $end
$scope module suma $end
$var wire 4 4" A [3:0] $end
$var wire 4 5" B [3:0] $end
$var wire 1 , resta $end
$var wire 1 6" c_out $end
$var wire 4 7" S [3:0] $end
$upscope $end
$upscope $end
$scope module Unidad_Control $end
$var wire 1 # clk $end
$var wire 1 8" q0 $end
$var wire 1 - qmenos1 $end
$var wire 1 ' start $end
$var wire 1 , resta $end
$var wire 1 . inic $end
$var wire 1 " fin $end
$var wire 1 / desplaza $end
$var wire 1 0 cargasuma $end
$var reg 3 9" estadoactual [2:0] $end
$var reg 3 :" siguienteestado [2:0] $end
$upscope $end
$upscope $end
$upscope $end
$enddefinitions $end
#0
$dumpvars
b1 :"
b0 9"
x8"
bx 7"
x6"
bx 5"
bx 4"
x3"
12"
01"
00"
1/"
x."
1-"
0,"
0+"
0*"
0)"
x("
x'"
0&"
0%"
0$"
0#"
0""
x!"
x~
0}
bx |
b100 {
1z
xy
1x
0w
0v
1u
xt
1s
1r
0q
0p
1o
xn
xm
1l
0k
0j
0i
0h
xg
xf
0e
0d
0c
0b
0a
x`
x_
0^
bx ]
0\
b1100 [
1Z
zY
0X
0W
xV
1U
xT
xS
xR
0Q
xP
1O
xN
xM
xL
xK
0J
xI
1H
xG
xF
xE
xD
0C
xB
1A
x@
x?
x>
x=
bx <
bx ;
0:
x9
b1100 8
bx 7
bx 6
bx 5
bx 4
z3
b100 2
b100 1
00
0/
1.
x-
x,
bx +
b100 *
b100 )
b1 (
1'
bx &
b100 %
b100 $
0#
0"
bx !
$end
#100
0T
0@
0G
0V
0N
0B
0I
0y
09
0P
0>
0E
b0xxx !
b0xxx +
b0xxx 6
0L
0?
0F
0M
b0 7
b0 ;
b0 4"
0S
0-
0'
#500
xT
xN
xG
x@
xW
xU
xQ
xO
xJ
xH
xC
xA
x:
x)"
x""
xh
xa
x0
0/"
x+"
x$"
xu
xw
xo
xq
xj
xc
02"
10"
1*"
1#"
0z
0x
1v
0r
1p
1i
1b
0Z
0.
b10 :"
b1 9"
1#
#600
0T
0N
1R
0W
1U
0Q
1O
1H
1A
0:
06"
0G
0@
00
0J
0C
0,
1K
0D
0=
0a
1h
1o
0""
1)"
b1100 5
b1100 <
b1100 7"
0c
1j
1q
0$"
1+"
0_
1f
1m
03"
08"
0~
1'"
0`
0g
1n
b1100 4
b1100 ]
b1100 5"
1t
0!"
0("
b100 !
b100 +
b100 6
b100 |
1."
#1000
0#
#1500
1z
1:
1/
b11 :"
b10 9"
1#
#2000
0#
#2500
0z
0:
0/
b100 :"
b11 9"
1#
#2600
1""
0)"
1$"
0+"
1~
0'"
1("
b10 !
b10 +
b10 6
b10 |
0."
#3000
0#
#3500
1z
1:
1/
b101 :"
b100 9"
1#
#4000
0#
#4500
0z
0:
0/
b110 :"
b101 9"
1#
#4600
0T
1N
0R
0W
0U
1Q
0O
0H
0A
1:
b100 5
b100 <
b100 7"
16"
10
1,
0""
0$"
13"
18"
0~
1!"
b1 !
b1 +
b1 6
b1 |
0("
#5000
0#
#5500
0N
1U
0Q
1O
1H
1A
1z
00
1/
b111 :"
b110 9"
1#
#5600
1T
1R
0K
1G
1V
b1000 5
b1000 <
b1000 7"
1I
19
1E
b100001 !
b100001 +
b100001 6
b100 7
b100 ;
b100 4"
1M
#6000
0#
#6500
0z
0:
0/
b10000 &
1"
b111 9"
1#
#6600
0R
0T
0,
1N
0G
1K
1D
1@
0V
1P
0I
b110 5
b110 <
b110 7"
1B
09
1L
0E
1>
03"
08"
1-
1S
0M
b1010 7
b1010 ;
b1010 4"
1F
b10000 !
b10000 +
b10000 6
b0 |
0!"
#7000
0#
#7500
1#
#8000
0#
#8500
0h
1/"
1u
0w
0q
0j
1a
12"
00"
0*"
0#"
1z
1x
0v
1r
0p
0i
1d
0b
1Z
1.
0"
b1 :"
b0 9"
1^
1#
1'
b1101 8
b1101 [
b101 $
b101 )
b101 1
b10 (
#8600
0@
1R
0D
0N
0B
b1100 5
b1100 <
b1100 7"
06"
0P
0>
b0 !
b0 +
b0 6
0L
0F
b0 7
b0 ;
b0 4"
0S
0-
0'
#9000
0#
#9500
1h
0/"
xu
xw
1q
1j
0a
02"
10"
1*"
1#"
0z
0x
1v
0r
1p
1i
0d
1b
0Z
0.
b10 :"
b1 9"
1#
#9600
1=
1)"
b1101 5
b1101 <
b1101 7"
1+"
1'"
b1101 4
b1101 ]
b1101 5"
1`
b100 !
b100 +
b100 6
b100 |
1."
#10000
0#
#10500
1z
1:
1/
b11 :"
b10 9"
1#
#11000
0#
#11500
0z
0:
0/
b100 :"
b11 9"
1#
#11600
0)"
1""
0+"
1$"
0'"
1~
0."
b10 !
b10 +
b10 6
b10 |
1("
#12000
0#
#12500
1z
1:
1/
b101 :"
b100 9"
1#
#13000
0#
#13500
0z
0:
0/
b110 :"
b101 9"
1#
#13600
1G
1J
0T
0N
1@
0R
0K
1D
0W
0U
0Q
0O
0H
1C
0A
1:
b11 5
b11 <
b11 7"
16"
10
1,
0""
0$"
0~
13"
18"
0("
b1 !
b1 +
b1 6
b1 |
1!"
#14000
0#
#14500
0G
0@
1U
1O
0J
1H
0C
1A
1z
00
1/
b111 :"
b110 9"
1#
#14600
1/"
1K
0=
1@
11"
b110 5
b110 <
b110 7"
1B
1y
1>
b11001 !
b11001 +
b11001 6
1?
b11 7
b11 ;
b11 4"
1F
#15000
0#
#15500
0z
0:
0/
b1100 &
1"
b111 9"
1#
#15600
1R
06"
0,
1D
0@
1)"
b1110 5
b1110 <
b1110 7"
0B
1+"
0>
1'"
03"
08"
1-
b1 7
b1 ;
b1 4"
0F
1."
b1100 !
b1100 +
b1100 6
b100 |
0!"
#16000
0#
#16500
1#
#17000
0#
#17500
0)"
01"
0+"
1u
0w
0q
0j
12"
00"
0*"
0#"
1z
1x
0v
1r
0p
1k
0i
0b
1Z
1.
0"
b1 :"
b0 9"
0^
1e
1#
1'
b1110 8
b1110 [
b110 $
b110 )
b110 1
b11 (
#17600
0D
1=
b1101 5
b1101 <
b1101 7"
0y
b100 !
b100 +
b100 6
b0 7
b0 ;
b0 4"
0?
0-
0'
#18000
0#
#18500
1)"
0/"
1+"
xu
xw
1q
1j
02"
10"
1*"
1#"
0z
0x
1v
0r
1p
0k
1i
1b
0Z
0.
b10 :"
b1 9"
1#
#18600
1D
0=
1a
b1110 5
b1110 <
b1110 7"
1c
1_
0`
b1110 4
b1110 ]
b1110 5"
1g
#19000
0#
#19500
1z
1:
1/
b11 :"
b10 9"
1#
#20000
0#
#20500
0z
0:
0/
b100 :"
b11 9"
1#
#20600
1""
0)"
1$"
0+"
1~
0'"
1("
b10 !
b10 +
b10 6
b10 |
0."
#21000
0#
#21500
1z
1:
1/
b101 :"
b100 9"
1#
#22000
0#
#22500
0z
0:
0/
b110 :"
b101 9"
1#
#22600
0T
0N
1G
0R
0K
0W
0U
0Q
0O
1J
0H
0A
1:
b10 5
b10 <
b10 7"
16"
10
1,
0""
0$"
13"
18"
0~
1!"
b1 !
b1 +
b1 6
b1 |
0("
#23000
0#
#23500
0G
1U
1O
0J
1H
1A
1z
00
1/
b111 :"
b110 9"
1#
#23600
1K
0D
1@
b100 5
b100 <
b100 7"
1B
1>
b10001 !
b10001 +
b10001 6
b10 7
b10 ;
b10 4"
1F
#24000
0#
#24500
0z
0:
0/
b1000 &
1"
b111 9"
1#
#24600
1R
06"
1/"
0,
0@
1K
1D
1=
11"
0B
b1111 5
b1111 <
b1111 7"
1y
0>
03"
08"
1-
0F
b1 7
b1 ;
b1 4"
1?
b1000 !
b1000 +
b1000 6
b0 |
0!"
#25000
0#
#25500
1#
#26000
0#
#26500
01"
1u
0w
0q
0j
0c
12"
00"
0*"
0#"
1z
1x
0v
1r
0p
1k
0i
1d
0b
1Z
1.
0"
b1 :"
b0 9"
1^
1#
1'
b1111 8
b1111 [
b111 $
b111 )
b111 1
b100 (
#26600
0=
b1110 5
b1110 <
b1110 7"
0y
b0 !
b0 +
b0 6
b0 7
b0 ;
b0 4"
0?
0-
0'
#27000
0#
#27500
0/"
xu
xw
1q
1j
1c
02"
10"
1*"
1#"
0z
0x
1v
0r
1p
0k
1i
0d
1b
0Z
0.
b10 :"
b1 9"
1#
#27600
1=
1)"
b1111 5
b1111 <
b1111 7"
1+"
1'"
b1111 4
b1111 ]
b1111 5"
1`
b100 !
b100 +
b100 6
b100 |
1."
#28000
0#
#28500
1z
1:
1/
b11 :"
b10 9"
1#
#29000
0#
#29500
0z
0:
0/
b100 :"
b11 9"
1#
#29600
0)"
1""
0+"
1$"
0'"
1~
0."
b10 !
b10 +
b10 6
b10 |
1("
#30000
0#
#30500
1z
1:
1/
b101 :"
b100 9"
1#
#31000
0#
#31500
0z
0:
0/
b110 :"
b101 9"
1#
#31600
0T
0N
0G
1@
0R
0K
0D
0W
0U
0Q
0O
0J
0H
1C
0A
1:
b1 5
b1 <
b1 7"
16"
10
1,
0""
0$"
0~
13"
18"
0("
b1 !
b1 +
b1 6
b1 |
1!"
#32000
0#
#32500
0@
1U
1O
1H
0C
1A
1z
00
1/
b111 :"
b110 9"
1#
#32600
1/"
1D
0=
11"
b10 5
b10 <
b10 7"
1y
b1001 !
b1001 +
b1001 6
b1 7
b1 ;
b1 4"
1?
#33000
0#
#33500
0z
0:
0/
b100 &
1"
b111 9"
1#
#33600
1R
1K
06"
0/"
0,
1D
1=
01"
1)"
b1111 5
b1111 <
b1111 7"
0y
1+"
1'"
03"
08"
1-
b0 7
b0 ;
b0 4"
0?
1."
b100 !
b100 +
b100 6
b100 |
0!"
#34000
0#
#34500
1#
#35000
0#
#35500
0)"
0u
0o
0h
0a
1/"
0+"
0w
0q
0j
0c
12"
00"
0*"
0#"
1z
0v
0p
0i
0b
1Z
1.
0"
b1 :"
0s
b0 9"
0^
0e
0l
1#
1'
b0 8
b0 [
b0 $
b0 )
b0 1
b101 (
#35600
0-
0'
#36000
0#
#36500
1)"
xu
1o
1h
1a
0/"
1+"
xw
1q
1j
1c
02"
10"
1*"
1#"
0z
1v
1p
1i
1b
0Z
0.
b10 :"
b1 9"
1#
#36600
0a
0h
0R
0K
0D
0=
0o
0c
0j
b0 5
b0 <
b0 7"
0q
0_
0f
0m
0`
0g
0n
b0 4
b0 ]
b0 5"
0t
#37000
0#
#37500
1z
1:
1/
b11 :"
b10 9"
1#
#38000
0#
#38500
0z
0:
0/
b100 :"
b11 9"
1#
#38600
1""
0)"
1$"
0+"
1~
0'"
1("
b10 !
b10 +
b10 6
b10 |
0."
#39000
0#
#39500
1z
1:
1/
b101 :"
b100 9"
1#
#40000
0#
#40500
0z
0:
0/
b110 :"
b101 9"
1#
#40600
0U
0O
0H
0A
1:
10
1,
0""
0$"
13"
18"
0~
1!"
b1 !
b1 +
b1 6
b1 |
0("
#41000
0#
#41500
1U
1O
1H
1A
1z
00
1/
b111 :"
b110 9"
1#
#42000
0#
#42500
0z
0:
0/
b0 &
1"
b111 9"
1#
#42600
0,
03"
08"
1-
b0 !
b0 +
b0 6
b0 |
0!"
#43000
0#
#43500
1#
#44000
0#
#44500
0u
1/"
0w
1a
12"
00"
0*"
0#"
1z
0v
0p
0i
1d
0b
1Z
1.
0"
b1 :"
b0 9"
1^
1#
1'
b1 8
b1 [
b1 $
b1 )
b1 1
b110 (
#44600
0-
0'
#45000
0#
#45500
xu
0/"
xw
0a
02"
10"
1*"
1#"
0z
1v
1p
1i
0d
1b
0Z
0.
b10 :"
b1 9"
1#
#45600
1=
1)"
b1 5
b1 <
b1 7"
1+"
1'"
b1 4
b1 ]
b1 5"
1`
b100 !
b100 +
b100 6
b100 |
1."
#46000
0#
#46500
1z
1:
1/
b11 :"
b10 9"
1#
#47000
0#
#47500
0z
0:
0/
b100 :"
b11 9"
1#
#47600
0)"
1""
0+"
1$"
0'"
1~
0."
b10 !
b10 +
b10 6
b10 |
1("
#48000
0#
#48500
1z
1:
1/
b101 :"
b100 9"
1#
#49000
0#
#49500
0z
0:
0/
b110 :"
b101 9"
1#
#49600
1T
1N
1G
1W
1Q
1J
1@
1R
1K
1D
0U
0O
0H
1C
0A
1:
b1111 5
b1111 <
b1111 7"
16"
10
1,
0""
0$"
0~
13"
18"
0("
b1 !
b1 +
b1 6
b1 |
1!"
#50000
0#
#50500
0T
0N
0G
0@
0W
1U
0Q
1O
0J
1H
0C
1A
1z
00
1/
b111 :"
b110 9"
1#
#50600
1/"
1T
1@
1G
11"
1V
0=
1N
1B
1I
1y
19
b1110 5
b1110 <
b1110 7"
06"
1P
1>
1E
b111001 !
b111001 +
b111001 6
1L
1?
1F
1M
b1111 7
b1111 ;
b1111 4"
1S
#51000
0#
#51500
0z
0:
0/
b111100 &
1"
b111 9"
1#
#51600
0R
0K
0D
b0 5
b0 <
b0 7"
16"
0,
1)"
1+"
1'"
03"
08"
1-
1."
b111100 !
b111100 +
b111100 6
b100 |
0!"
#52000
0#
#52500
1#
#53000
0#
#53500
0)"
0u
01"
0+"
0w
1h
12"
00"
0*"
0#"
1z
0v
0p
1k
0i
0b
1Z
1.
0"
b1 :"
b0 9"
0^
1e
1#
1'
b10 8
b10 [
b10 $
b10 )
b10 1
b111 (
#53600
0T
0@
0G
0V
1=
0N
0B
0I
0y
09
b1 5
b1 <
b1 7"
06"
0P
0>
0E
b100 !
b100 +
b100 6
0L
0?
0F
0M
b0 7
b0 ;
b0 4"
0S
0-
0'
#54000
0#
#54500
1)"
xu
0/"
1+"
xw
0h
02"
10"
1*"
1#"
0z
1v
1p
0k
1i
1b
0Z
0.
b10 :"
b1 9"
1#
#54600
1D
0=
1a
b10 5
b10 <
b10 7"
1c
1_
0`
b10 4
b10 ]
b10 5"
1g
#55000
0#
#55500
1z
1:
1/
b11 :"
b10 9"
1#
#56000
0#
#56500
0z
0:
0/
b100 :"
b11 9"
1#
#56600
1""
0)"
1$"
0+"
1~
0'"
1("
b10 !
b10 +
b10 6
b10 |
0."
#57000
0#
#57500
1z
1:
1/
b101 :"
b100 9"
1#
#58000
0#
#58500
0z
0:
0/
b110 :"
b101 9"
1#
#58600
1T
1N
1W
1Q
1G
1R
1K
0U
0O
1J
0H
0A
1:
b1110 5
b1110 <
b1110 7"
16"
10
1,
0""
0$"
13"
18"
0~
1!"
b1 !
b1 +
b1 6
b1 |
0("
#59000
0#
#59500
0T
0N
0G
0W
1U
0Q
1O
0J
1H
1A
1z
00
1/
b111 :"
b110 9"
1#
#59600
1T
1@
1G
1V
0D
1N
1B
1I
19
b1100 5
b1100 <
b1100 7"
06"
1P
1>
1E
b110001 !
b110001 +
b110001 6
1L
1F
1M
b1110 7
b1110 ;
b1110 4"
1S
#60000
0#
#60500
0z
0:
0/
b111000 &
1"
b111 9"
1#
#60600
0R
0K
16"
1/"
0,
1=
11"
b1 5
b1 <
b1 7"
1y
03"
08"
1-
b1111 7
b1111 ;
b1111 4"
1?
b111000 !
b111000 +
b111000 6
b0 |
0!"
#61000
0#
#61500
1#
#62000
0#
#62500
0u
01"
0w
1h
0c
12"
00"
0*"
0#"
1z
0v
0p
1k
0i
1d
0b
1Z
1.
0"
b1 :"
b0 9"
1^
1#
1'
b11 8
b11 [
b11 $
b11 )
b11 1
b1000 (
#62600
0T
0@
0G
0V
1D
0=
0N
0B
0I
0y
09
b10 5
b10 <
b10 7"
06"
0P
0>
0E
b0 !
b0 +
b0 6
0L
0?
0F
0M
b0 7
b0 ;
b0 4"
0S
0-
0'
#63000
0#
#63500
xu
0/"
xw
0h
1c
02"
10"
1*"
1#"
0z
1v
1p
0k
1i
0d
1b
0Z
0.
b10 :"
b1 9"
1#
#63600
1=
1)"
b11 5
b11 <
b11 7"
1+"
1'"
b11 4
b11 ]
b11 5"
1`
b100 !
b100 +
b100 6
b100 |
1."
#64000
0#
#64500
1z
1:
1/
b11 :"
b10 9"
1#
#65000
0#
#65500
0z
0:
0/
b100 :"
b11 9"
1#
#65600
0)"
1""
0+"
1$"
0'"
1~
0."
b10 !
b10 +
b10 6
b10 |
1("
#66000
0#
#66500
1z
1:
1/
b101 :"
b100 9"
1#
#67000
0#
#67500
0z
0:
0/
b110 :"
b101 9"
1#
#67600
1T
1N
1W
1Q
0G
1@
1R
1K
0D
0U
0O
0J
0H
1C
0A
1:
b1101 5
b1101 <
b1101 7"
16"
10
1,
0""
0$"
0~
13"
18"
0("
b1 !
b1 +
b1 6
b1 |
1!"
#68000
0#
#68500
0T
0N
0@
0W
1U
0Q
1O
1H
0C
1A
1z
00
1/
b111 :"
b110 9"
1#
#68600
1/"
1T
1G
11"
1V
0K
1D
0=
1N
1I
1y
19
b1010 5
b1010 <
b1010 7"
06"
1P
1E
b101001 !
b101001 +
b101001 6
1L
1?
1M
b1101 7
b1101 ;
b1101 4"
1S
#69000
0#
#69500
0z
0:
0/
b110100 &
1"
b111 9"
1#
#69600
0R
0D
16"
0/"
0,
1@
1=
01"
1)"
1B
b1 5
b1 <
b1 7"
0y
1+"
1>
1'"
03"
08"
1-
1F
b1110 7
b1110 ;
b1110 4"
0?
1."
b110100 !
b110100 +
b110100 6
b100 |
0!"
#70000
0#
#70500
1#
#71000
0#
#71500
0)"
0a
1/"
0+"
1""
1u
0w
1o
0c
12"
00"
0*"
1%"
0#"
1z
1x
0v
1r
0p
0i
0b
1Z
1.
0"
b1 :"
1s
b0 9"
1}
0^
0e
1l
1#
1'
b101 %
b101 *
b101 2
b101 {
b1100 8
b1100 [
b100 $
b100 )
b100 1
b1001 (
#71600
0T
0@
0G
0V
1D
0N
0B
0I
09
b11 5
b11 <
b11 7"
06"
0P
0>
0E
b100 !
b100 +
b100 6
0L
0F
0M
b0 7
b0 ;
b0 4"
0S
0-
0'
#72000
0#
#72500
1)"
1a
0/"
1+"
0""
xu
xw
0o
1c
02"
10"
1*"
0%"
1#"
0z
0x
1v
0r
1p
1i
1b
0Z
0.
b10 :"
b1 9"
1#
#72600
0T
1N
0W
0U
1Q
0O
0H
0A
1:
16"
10
1,
0a
1h
0R
1K
0D
0=
1o
0c
1j
b100 5
b100 <
b100 7"
1q
0_
1f
1m
13"
18"
0`
0g
1n
b1100 4
b1100 ]
b1100 5"
1t
b101 !
b101 +
b101 6
b101 |
1!"
#73000
0#
#73500
0N
1U
0Q
1O
1H
1A
1z
00
1/
b11 :"
b10 9"
1#
#73600
1T
1R
0K
1G
1V
b1000 5
b1000 <
b1000 7"
1I
19
1E
b100101 !
b100101 +
b100101 6
b100 7
b100 ;
b100 4"
1M
#74000
0#
#74500
0G
0V
0I
1W
0U
0O
0H
0A
0z
10
0/
b100 :"
b11 9"
1#
#74600
0T
0W
0R
1N
1G
1Q
1J
0,
1K
1D
1""
0)"
b110 5
b110 <
b110 7"
09
1$"
0+"
1L
0E
1>
03"
08"
1~
0'"
1-
1S
0M
b1010 7
b1010 ;
b1010 4"
1F
0!"
1("
b10010 !
b10010 +
b10010 6
b10 |
0."
#75000
0#
#75500
1@
1P
0G
1B
1U
0Q
1O
0J
1H
1A
1z
00
1/
b101 :"
b100 9"
1#
#75600
1T
1G
1V
0K
0N
1I
19
b10 5
b10 <
b10 7"
0P
1E
b110010 !
b110010 +
b110010 6
0L
1M
b110 7
b110 ;
b110 4"
0S
#76000
0#
#76500
0T
0@
0V
0I
0B
0z
0U
0O
1J
0H
0A
0/
10
b110 :"
b101 9"
1#
#76600
1T
1W
1R
1N
1@
1Q
1C
1/"
1,
1K
1=
11"
0""
b1111 5
b1111 <
b1111 7"
1y
09
0$"
1L
0E
13"
18"
0~
0-
1S
0M
b1011 7
b1011 ;
b1011 4"
1?
1!"
b11001 !
b11001 +
b11001 6
b1 |
0("
#77000
0#
#77500
0T
1P
0G
1B
0W
1U
0Q
1O
0J
1H
0C
1A
1z
00
1/
b111 :"
b110 9"
1#
#77600
1T
0R
0K
1G
1V
b11 5
b11 <
b11 7"
06"
1I
19
1E
b111001 !
b111001 +
b111001 6
b1111 7
b1111 ;
b1111 4"
1M
#78000
0#
#78500
0z
0:
0/
b1100 &
1"
b111 9"
1#
#78600
1R
b1011 5
b1011 <
b1011 7"
16"
0,
1)"
1+"
03"
08"
1'"
1-
0!"
b111100 !
b111100 +
b111100 6
b100 |
1."
#79000
0#
#79500
1#
#80000
0#
